{
	"_id": "course123",
	"name": "Full Stack Web Dev in JS",
	"description": "Learn how to do web development using JS",
	"price": 10000,
	"slots": 25,
	"isActive": true,
	"dateTimeCreated": "2022-08-15-1819PM"
},
{
	"_id": "course456",
	"name": "Introduction to PHP",
	"description": "Learn how to create a simple music library using PHP",
	"price": 12000,
	"slots": 20,
	"isActive": true,
	"dateTimeCreated": "2022-08-15-1820PM"
}